<?xml version="1.0" encoding="UTF-8"?>
<!DOCTYPE svg PUBLIC "-//W3C//DTD SVG 1.1//EN" "http://www.w3.org/Graphics/SVG/1.1/DTD/svg11.dtd">
<!-- Creator: CorelDRAW 2018 (64-Bit) -->
<svg xmlns="http://www.w3.org/2000/svg" xml:space="preserve" width="71.0036mm" height="26.9359mm" version="1.1" style="shape-rendering:geometricPrecision; text-rendering:geometricPrecision; image-rendering:optimizeQuality; fill-rule:evenodd; clip-rule:evenodd"
viewBox="0 0 7100.36 2693.59"
 xmlns:xlink="http://www.w3.org/1999/xlink">
 <defs>
  <style type="text/css">
   <![CDATA[
    .fil1 {fill:#FEFEFE}
    .fil2 {fill:#231E1F}
    .fil0 {fill:url(#id0)}
   ]]>
  </style>
  <radialGradient id="id0" gradientUnits="userSpaceOnUse" gradientTransform="matrix(2.00001 -0 -0 2.00001 -1237 -1828)" cx="1236.71" cy="1828.03" r="3214.68" fx="1236.71" fy="1828.03">
   <stop offset="0" style="stop-opacity:1; stop-color:#E31E24"/>
   <stop offset="0.321569" style="stop-opacity:1; stop-color:#E31E24"/>
   <stop offset="1" style="stop-opacity:1; stop-color:#1C1B17"/>
  </radialGradient>
 </defs>
 <g id="Слой_x0020_1">
  <metadata id="CorelCorpID_0Corel-Layer"/>
  <circle class="fil0" cx="1236.71" cy="1828.03" r="730.2"/>
  <path class="fil1" d="M3672.47 2435.56c-95.53,60.36 -150.08,70.68 -260.74,33.8 -71.24,-23.74 -142.19,-48.81 -213.25,-73.12 -45.96,-15.73 -91.95,-31.41 -138.08,-46.64 -12.47,-4.12 -25.93,-8.85 -39.45,-13.27 -13.9,24.7 -26.98,45.86 -48.9,73.41 -27.87,35.06 -82.52,59.49 -124.5,72.35 -57.12,17.49 -144.19,30.08 -186.57,-23.66 -28.5,-36.14 -21.09,-81.33 -2.79,-119.89 3.27,-8.73 8.54,-19.16 15.04,-30.44l-87.45 55.08c-109.07,153.72 -330.97,191.92 -515.68,71.14 -28.96,-16.27 -69.37,-56.12 -89.73,-79.96 -10.73,-12.56 -21.3,-26.5 -30.16,-41.44 -33.22,48.28 -72.79,93.75 -109.82,130.79 -35.39,35.38 -69.7,64.31 -110.24,93.64 -41.45,29.99 -83.03,52.1 -128.55,75.05 -188.05,94.79 -381.21,96.23 -584.07,56.86l-1.37 -0.26 -1.34 -0.33c-52.67,-13.07 -98.04,-33.06 -147.99,-52.67 -122.09,-47.93 -268.21,-171.3 -340.57,-280.51 -27.9,-42.12 -56.67,-83.08 -75.95,-130.16 -4.72,-11.51 -10.15,-22.46 -15.25,-33.78 -16.3,-36.25 -27.35,-74.13 -38.16,-112.27 -19.39,-68.34 -25.16,-139.36 -26.8,-210.26 -15.87,3.05 -31.73,6.13 -47.54,8.96 -38.77,6.95 -102.6,19.3 -140.99,13.99 -97.1,-13.44 -181.57,-87.46 -181.57,-190.28l0 -67.38 65.79 14.57c8.46,1.86 22.62,7.34 31.31,8.57 8.25,-2.22 19.26,-7.27 20.02,-16.37l3.52 -42.32 219.12 -34.63c27.91,-4.69 55.88,-8.9 83.68,-14.17 22.4,-56.43 47.34,-111.55 79.63,-163.17 117.81,-188.32 339.46,-341.83 565.5,-383.06 -2.24,-2.08 -4.44,-4.2 -6.59,-6.39 -28.09,-28.43 -50.19,-51.74 -59.7,-92.51l-15.82 -67.95 69.76 1.6c23.13,0.53 41.77,6.41 63.86,10.15 29.01,4.92 58.49,9.66 88,9.68 27.06,0.02 53.99,-1.36 81.2,-1.12 22.14,0.19 24.74,0.53 45.39,-4.7 20.56,-5.21 40.84,-5.67 61.4,-9.18 26.79,-4.56 87.35,-18.42 110.5,-29.55 0.43,-0.21 0.62,-0.25 1.02,-0.49 1.87,-1.32 3.37,-2.46 4.63,-3.23 1.35,-0.91 2.68,-1.81 4.08,-2.66 19.24,-11.74 36.47,-15.96 55.49,-25.48 26.97,-13.51 54.17,-26.5 79.46,-43.04 26.78,-17.5 75.64,-57.12 97.05,-80.44 14.79,-16.09 17.75,-25.79 38.94,-39.98l151.6 -101.46 -120.32 281.1 -1.04 1.96c-53.47,101.1 -185.52,188.46 -290.02,230.32 -6.94,2.78 -14.12,5.48 -21.54,8.09 86.5,28.75 169.19,69.86 235.84,120.34 3.56,2.69 9.28,7.23 14.42,10.69 4.29,-2.06 8.78,-4.53 12.16,-6.2 16.77,-8.32 33.56,-16.01 50.94,-22.96 46.86,-18.73 93.61,-37.81 139.65,-58.49 44.48,-19.99 89.92,-38.3 133.58,-60.02 12.27,-6.11 24.94,-10.45 36.72,-15.91l100.4 -47.89c43.92,-21.98 88.69,-42.15 132.67,-63.99 172.78,-85.83 339.52,-185.32 504.21,-283.9l124.85 -77.58c40.67,-24.27 77.89,-53.75 118.88,-77.93 35.31,-20.84 74.6,-52.34 108.19,-76.75 19.27,-14.01 62.08,-46.83 97.15,-68.82 -0.35,-18.5 -0.66,-37.01 0.28,-55.51 1.97,-38.57 21.15,-81.14 36.83,-116.17 10.11,-22.57 24.64,-51.67 30.2,-75.54l9.74 -41.82 126.17 0 62.63 154.72 0.39 1.09c22.69,63.8 24.67,83.22 24.78,136.51l233.13 161.08c72.51,48.34 145.73,95.77 219.7,139.78l413.34 234.7c16.28,8.16 31.22,17.96 47.32,26.14 112.05,56.86 226.07,109.68 339.9,162.86 65.67,30.68 131.84,59.85 199.17,86.74 103.45,41.31 206.83,83.19 311.67,120.85 35.34,12.7 70.76,25.13 106.38,37.01 258.09,86 518.65,166.57 785.27,221.87 39.9,8.27 79.73,16.87 119.68,24.86 59.78,11.96 121.98,20.99 182.21,31.26 41.55,7.08 83.11,14.18 124.59,21.62 18.5,3.33 58.05,8.78 74.6,16.32 6.9,3.15 13.27,7.27 19,12.23 11.96,10.38 19.16,22.54 25.88,36.58 1.16,2.42 3.09,6.97 4.86,10.04 10.19,1.25 32.77,-4.43 40.32,-6.58l246.74 -70.48 -380.74 316.66 -23.78 -3.39c-123.82,-17.7 -247.74,-41.24 -370.1,-67.08 -132.66,-28 -266.38,-59.16 -396.68,-96.74l-240.55 -69.4c-39.34,-12.16 -78.99,-23.31 -118.49,-34.93 -39.58,-11.65 -77.28,-27.35 -116.33,-40.28 -22.85,-7.56 -45.66,-15.28 -68.44,-23.14 73.89,116.8 87.62,295.14 109.84,416.74 12.99,44.59 26.76,88.55 42.49,132.28 13.87,38.6 32.74,78.7 49.57,116.21 13.57,30.25 27.33,60.43 41.16,90.56 5.82,12.69 19.7,39.17 22.76,52.35l8.52 36.51 -68.43 45.57c-99.9,64.28 -154.38,76.01 -267.71,38.24 -71.23,-23.74 -142.19,-48.81 -213.25,-73.12 -45.96,-15.73 -91.95,-31.41 -138.08,-46.64 -12.47,-4.12 -25.93,-8.85 -39.45,-13.27 -13.89,24.7 -26.98,45.86 -48.89,73.41 -27.87,35.06 -82.52,59.49 -124.5,72.35 -57.13,17.49 -144.2,30.08 -186.58,-23.66 -2.1,-2.66 -4,-5.37 -5.73,-8.13 -2.53,1.72 -5.19,3.5 -7.99,5.34 -77.56,51.19 -164.85,62.5 -253.22,35.61 -48.89,-14.89 -80.77,-34.65 -122.29,-62.02l-0.65 -0.39 -0.97 -0.66c-59.21,-39.64 -99.34,-135.85 -122.24,-231.5 -10.22,24.48 -20.04,49.3 -30.43,73.56 -40.08,93.62 -102.99,162.91 -198.4,201.4 -38.89,15.7 -85.73,25.52 -123.94,2.32 -16.17,-9.81 -27.23,-23.13 -34.37,-38.4zm18.23 -195.57c7.76,-28.83 15.87,-57.58 24.04,-86.26 19.1,-66.96 39.14,-133.56 58.81,-200.35 21.83,-74.09 47.48,-148.99 73.77,-221.58 21.52,-59.43 64.86,-182.16 104.75,-229.02 50.21,-59.01 181.81,-83.21 253.98,-64.14 28.57,7.56 52.82,23.94 66.21,50.88 20.98,42.18 5.73,87.91 -6.8,129.83l-0.31 1.02 -3.29 9.61c12.39,-13.57 24.91,-27.01 37.8,-40.08 32.77,-37.41 80.47,-69.51 123.95,-92.83 64.38,-34.53 194.1,-88.88 255.04,-22.9 44.42,48.09 17.62,117.65 -9.77,166.61l-0.84 1.46c-40.93,68.07 -140.82,129.17 -208.71,169.82 -21.33,12.78 -43.98,25.39 -63.82,40.38 -9.24,6.98 -23.48,17.93 -38.32,28.26l25.86 118.24c16.77,58.31 89.97,168.98 132.57,211.57 12.07,12.08 21.28,20.65 29.49,27.39l11.84 -28.37c29.03,-69.59 76.54,-181.42 151.68,-208.93 26.21,-9.6 41.91,-15.54 70.78,-19.04 5.93,-0.72 13.09,-0.99 19.61,-1.62l151.76 -274.2 0.4 -0.67c9.09,-15.38 51.25,-84.51 55.65,-104.09 -1.58,-4.9 -4.9,-11.51 -6.72,-15.91 -6.6,-15.94 -11.73,-31.85 -15.65,-48.66l-9.53 -40.93 37.3 -19.36c30.21,-15.67 62.47,-29.35 95.49,-38.47 -58.85,-23.39 -117.37,-47.55 -175.45,-72.3 -190.14,-81.02 -380.66,-170.15 -561.13,-271.01 -65.55,-36.63 -132.42,-70.91 -196.75,-109.7 -64.82,-39.1 -131.41,-74.97 -194.93,-116.27l-281.13 -182.77c-80.45,-53.63 -157.52,-112.07 -237.07,-166.96 -138.2,106.79 -287,198.52 -432.85,294.34 -126.73,83.27 -258.82,157.66 -391.58,231.85l-152.16 83.05 -0.9 0.45c-16.62,8.28 -33.22,16.61 -50.58,25.28l-366.3 176.22c-18.22,8.76 -36.88,16.39 -55.63,23.93 -16.84,6.77 -34.15,13.25 -51.27,20.15 46.94,81.35 85.69,159.47 108.64,245.46 32.96,-52.88 81.32,-99.35 140.74,-134.89 43.47,-26 168.93,-57.32 222.8,-53.35 83.4,-0.56 176.87,23.38 229.47,92.82 68.38,90.25 31.8,206.1 -20.8,293.86l-1.97 3.29 -2.42 2.98c-16.65,20.52 -35.61,39.04 -56.62,55.06 -12.88,9.82 -23.82,18.2 -35.25,24.65 19.29,22.55 37.5,44.21 53.76,71.51 32.82,55.1 48.46,115.2 53.95,178.78l0.31 3.73 -0.19 3.73c-0.71,13.73 -2.02,27.1 -3.88,40.1 29.28,-69.85 76.02,-174.55 148.37,-201.04 26.21,-9.6 41.92,-15.54 70.79,-19.04 5.92,-0.72 13.09,-0.99 19.61,-1.62l151.76 -274.2 0.4 -0.67c9.09,-15.38 51.25,-84.51 55.65,-104.09 -1.58,-4.9 -4.9,-11.51 -6.72,-15.91 -6.6,-15.94 -11.73,-31.85 -15.66,-48.66l-9.53 -40.93 37.3 -19.36c91.34,-47.4 201.41,-76.47 294.57,-16.73 145.29,93.16 159.8,342.34 188.3,498.25 12.99,44.59 26.76,88.55 42.48,132.28 13.88,38.6 32.75,78.7 49.58,116.21 5.06,11.3 10.16,22.58 15.27,33.86zm-1611.95 -278.92c-6.84,38.7 -15.28,77.18 -25.61,115.1 89.89,-25.27 165.87,46.69 211.02,122.02l1.53 2.56 1.25 2.71c6.37,13.9 21.66,56.71 31.87,66.12 1.9,1.76 4.63,2.61 7.44,3.04 0.01,-2.37 -0.16,-4.79 -0.28,-6.25l-0.96 -10.86 0.72 -2.24c-5.66,-26.23 -37.3,-94.99 -47.9,-112.96 -13.77,-19.55 -61.6,-57.89 -82.07,-74.23 -31.79,-25.36 -73.44,-70.83 -97.01,-105.01zm338.73 -225.83c-2.49,-17.56 -5.35,-34.01 -8.69,-47.52 -1.38,9.5 -1.74,18.96 -1.11,25.98 3.14,7.28 6.4,14.47 9.8,21.54zm-1025.6 -527.3c-160.5,-40.38 -326.09,-17.07 -471.14,61.91 -270.61,147.37 -400.1,482.91 -301.78,774.48 101.44,300.84 395.53,473.08 690.34,439.16 -80.58,-21.8 -153.82,-67.36 -204.62,-134.9 -37.7,-50.13 -60.1,-108.75 -65.89,-171.18l-0.09 -0.99c-4.52,-60.85 0.82,-122.06 14.99,-181.37 66.39,-277.72 323.96,-509.09 605.05,-552.81l1.03 -0.14c18.87,-2.57 42.97,-5.76 67.69,-6.35 -83.26,-102.31 -196.33,-176.77 -335.58,-227.81zm215.97 600.45l-196.78 206.39c-1.76,43.52 2.49,90.04 11.97,140.69 60.58,207.53 181.66,65.38 236.76,-59.7 30.49,-110.94 11.31,-197.72 -51.95,-287.38zm3510.95 144.15c-5.72,12.01 -11.63,24.29 -17.5,36.65l26.34 0c-2.96,-12.21 -5.92,-24.43 -8.84,-36.65zm-1911.73 0c-5.71,12.01 -11.63,24.29 -17.49,36.65l26.34 0c-2.96,-12.21 -5.92,-24.43 -8.85,-36.65z"/>
  <path class="fil2" d="M3331.21 2202.3l51.45 144.99c-11.57,-5.56 -28.61,-7.98 -43.74,-12.38 -92.93,-27.01 -231,-59.77 -330.42,-85.84 4.74,-20.33 3.01,-18.75 27.5,-19.27 152.76,-0.08 189.55,14.7 295.21,-27.5zm-2276.24 -1329.74c6.92,29.69 26.88,47.93 45.49,66.76 94.81,95.96 305.72,61.35 406.89,20.82 95.84,-38.4 216.51,-118.8 262.31,-205.39l47.66 -111.35c-14.91,9.98 -16.98,18.36 -29.17,31.62 -18.46,20.1 -83.44,73.54 -107.3,89.13 -27.58,18.03 -54,30.67 -84.85,46.12 -20.29,10.15 -33.12,12.06 -51.52,23.29 -0.87,0.53 -1.97,1.32 -2.83,1.86 -2.33,1.46 -4.14,3.48 -11.62,7.08 -22.94,11.04 -99.18,29.77 -124.87,34.14 -17.55,3 -40.55,4.07 -57.2,8.29 -25.74,6.52 -27.06,6.63 -59.14,6.36 -83.88,-0.73 -82.96,6.75 -177.77,-9.32 -18.46,-3.12 -37.23,-8.98 -56.08,-9.41zm501.75 1591.49c-384.71,196.39 -850.9,7.17 -989.02,-402.44 -109.01,-323.3 39.84,-682.81 327.18,-839.26 146.3,-79.68 326.5,-113.88 512.97,-66.17 274.26,99.74 435.62,279.96 502.76,526.77 -17.94,-46.52 -42.36,-68.15 -71.1,-73.24 -80.94,-2.92 -202.1,80.85 -198.77,151.99 70.24,93.19 113.05,200.56 70.16,352.24 -100.51,232.48 -275.61,281.04 -340.54,54.08 -46.14,-242.92 33.2,-376.06 143.23,-482.32 28.81,-30.97 61.32,-50.86 97.92,-58.46l-219.23 328.86 388.77 -407.78c40.35,-50.02 5.47,-68.86 -114,-52.62 -312.07,48.53 -598.58,351.27 -574.4,676.71 21.45,231.32 307.42,357.18 558.33,206.07 56.79,-30.16 106.37,-66.15 147.75,-108.77 -58.94,76.53 -138.85,141.68 -242.01,194.34zm1813.37 -2143.37c-23.39,6.25 -192.56,137.03 -232.36,160.52 -42.18,24.88 -78.36,53.74 -118.63,77.79l-124.04 77.08c-163.59,97.94 -338.15,201.67 -508.69,286.39 -45.73,22.72 -87.15,41.21 -132.52,63.92l-101.32 48.34c-13.76,6.38 -23.69,9.43 -35.93,15.52 -43.43,21.6 -90.64,40.78 -135.5,60.93 -46.07,20.7 -92.71,39.78 -141.73,59.38 -86.82,34.71 -75.08,53.15 -130.27,11.36 -119.45,-90.46 -295.98,-148.67 -443.65,-155l-79.52 0c-246.6,0 -509.79,165.22 -636.99,368.57 -33.01,52.77 -57.72,109.31 -80.36,167.51 -7.61,19.57 -11.25,15.56 -31.92,19.52 -30.47,5.86 -57.46,9.85 -87.93,14.97l-177.7 28.09c-2.95,35.42 -31.81,58.33 -65.49,65.47 -15.48,3.28 -36.46,-6.03 -51.44,-9.35 0,76.27 65.89,127.15 134.89,136.7 41.59,5.75 179.56,-25.34 234.6,-33.82 0,88.39 1.97,177.5 25.35,259.95 10.36,36.53 20.45,71.44 35.46,104.84 5.85,13 9.45,19.53 15.98,35.48 17.58,42.93 45.67,82.57 70.98,120.77 66.75,100.73 204.72,216.64 315.24,260.03 48.12,18.89 87.15,37.1 141.24,50.52 191.98,37.25 373.19,36.76 549.41,-52.07 46.19,-23.29 80.7,-41.29 121.19,-70.57 41.46,-30.01 68.27,-52.66 103.69,-88.07 58.78,-58.78 129.35,-145.97 158.63,-224.88 37.38,-90.47 62.39,-193.29 76.38,-307.12l0 -79.52c0,-176.77 -70.84,-305.53 -154.33,-444.31 34.01,-18.01 73.17,-31.94 108.28,-46.05 17.55,-7.06 34.95,-14.08 52.35,-22.49l366.3 -176.22c18.41,-9.21 31.48,-15.77 49.89,-24.95l151.28 -82.57c131.38,-73.42 261.8,-146.78 387.79,-229.57 155.14,-101.92 315.03,-199.94 460.25,-316.13 91.46,61.24 177.6,127.76 269.39,188.95l280.6 182.43c63.43,41.67 128.87,76.39 193.39,115.29 63.08,38.05 128.85,71.72 195.2,108.8 303.73,169.75 730.78,352.24 1073.16,465.58 38.93,12.88 73.21,27.55 114.61,39.73 41.81,12.31 79.98,23.03 119.19,35.15l239.57 69.1c209.67,60.96 533.21,129.92 759.43,162.25l164.99 -137.23c-118.11,33.74 -95.17,-40.38 -127.35,-55.05 -12.56,-5.73 -335.94,-58.66 -369.58,-65.39 -42.25,-8.45 -79.57,-16.54 -120.05,-24.93 -269.1,-55.81 -531.6,-136.95 -791.39,-223.52 -37.42,-12.47 -72.37,-24.78 -107.57,-37.42 -103.98,-37.36 -213.2,-81.5 -313.44,-121.53 -70.15,-28.01 -134.36,-56.36 -202.01,-87.96 -114.62,-53.55 -228.68,-106.39 -341.48,-163.63 -19.06,-9.68 -28.27,-16.77 -48.24,-26.59l-414.65 -235.45c-75.63,-44.99 -150.14,-93.23 -223,-141.81l-257.23 -177.73c0,-77.05 3.82,-75.15 -21.64,-146.73l-48.51 -119.85 -46.77 0c-12.12,52 -63.14,132.47 -65.68,182.19 -1.34,26.23 0.2,57.57 0.2,84.39zm-1247.91 1608.04c19.13,28.24 61.23,74.27 87.32,95.08 20.83,16.62 82.5,68.05 94.33,88.07 12.1,20.49 63.12,127.61 56.03,149.77 3.6,41.03 -13.36,61.47 -46.77,65.47 -63.48,0 -72.27,-50.81 -95.33,-101.11 -116.51,-194.33 -236.74,-58.93 -236.74,12.25 0,59.62 99.73,140.7 116.94,149.65 222.95,147.36 486.97,29.86 500.43,-229.17 -12.14,-140.57 -73.34,-193.29 -115.76,-244.37 -59.66,-54.46 -98.99,-117.8 -127.45,-185.91 -9.43,-48.96 13.5,-121.21 51.44,-126.27 75.14,17.5 64.99,187.59 79.52,261.91 29.89,0 43.78,-14.92 60.89,-27.97 17.39,-13.25 33.27,-28.7 47.42,-46.13 127.53,-212.78 -7.68,-306.88 -164.44,-304.73 -42.62,-5.06 -163.26,27.93 -192.87,45.65 -147.56,88.26 -216.24,248.3 -114.96,397.81zm2089.77 454.52c15.05,9.16 162.85,129.12 317.23,27.25 47.07,-31.07 39,-29.03 61.6,-83.38 -58.4,-30.91 -62.67,-27.6 -113.42,-78.34 -48.09,-48.09 -128.28,-169.77 -146.81,-236.7l-34.42 -157.34c8.86,-2.36 55.95,-37.28 66.78,-45.46 20.79,-15.71 46.48,-30.36 68.63,-43.62 56.42,-33.78 155.62,-93.88 190.13,-151.29 118.26,-211.36 -191.75,-92.69 -282.32,12.33 -42.57,43.03 -89.08,98.92 -130.96,140.31l-80.64 87.73 85.87 -250.87c14.08,-47.08 32.76,-98.6 -21.4,-112.91 -63.2,-16.72 -168.94,11.63 -198.96,46.89 -48.53,57.03 -146.74,359.26 -167.82,430.83 -13.77,46.77 -104.63,346.87 -109.24,400.79 -6.56,76.41 46.53,71.3 94.34,52.01 81.76,-32.99 134.33,-91.75 168.91,-172.52 55.28,-129.11 32.38,-90.36 110.9,-230.52 0,96.95 41.61,311.24 121.6,364.81zm1030.98 -180.94l51.45 144.99c-11.57,-5.56 -28.61,-7.98 -43.74,-12.38 -92.93,-27.01 -231,-59.77 -330.41,-85.84 4.73,-20.33 3.01,-18.75 27.49,-19.27 152.76,-0.08 189.55,14.7 295.21,-27.5zm-533.18 18.71c-19.98,28.55 -85.49,118.52 -89.81,138.33 -68.74,139.03 174.32,76.07 221.5,16.74 36.56,-45.99 34.74,-49.59 64.75,-103.63 46.45,10.82 365.65,122.69 434.37,145.59 93.43,31.14 131.35,25.48 221.33,-32.42l36.5 -24.3c-0.41,-1.74 -91.18,-195.97 -111.72,-253.09 -16.82,-46.79 -29.4,-86.87 -44.29,-138.11 -37.05,-200.19 -53.18,-628.71 -405.23,-445.98 20.91,89.79 56.22,46.8 -39.41,208.47l-156.63 283c-14.55,19.86 -24.8,15.96 -55.19,19.65 -28.73,3.48 -36.58,8.04 -58.69,16.14 -54.03,19.78 -99.18,128.2 -120.36,178.96 34.64,-21.82 61.75,-25.17 102.88,-9.35zm486.42 -177.73l-177.73 0c1.68,-7.22 107.3,-236.49 121.61,-257.24 3.99,48.04 43.9,204.35 56.12,257.24zm-2398.14 177.73c-19.98,28.55 -85.49,118.52 -89.81,138.33 -68.75,139.03 174.32,76.07 221.49,16.74 36.57,-45.99 34.75,-49.59 64.76,-103.63 46.45,10.82 365.65,122.69 434.36,145.59 93.44,31.14 131.36,25.48 221.34,-32.42l36.5 -24.3c-0.41,-1.74 -91.18,-195.97 -111.72,-253.09 -16.82,-46.79 -29.4,-86.87 -44.29,-138.11 -37.05,-200.19 -53.18,-628.71 -405.24,-445.98 20.92,89.79 56.23,46.8 -39.4,208.47l-156.63 283c-14.55,19.86 -24.81,15.96 -55.19,19.65 -28.73,3.48 -36.58,8.04 -58.7,16.14 -54.02,19.78 -99.17,128.2 -120.35,178.96 34.64,-21.82 61.75,-25.17 102.88,-9.35zm486.41 -177.73l-177.72 0c1.68,-7.22 107.3,-236.49 121.61,-257.24 3.99,48.04 43.89,204.35 56.11,257.24z"/>
 </g>
</svg>
